^C:\USERS\KARTH\DOCUMENTS\VISUAL STUDIO 2013\PROJECTS\FILESYSTEM\FILESYSTEM\FILESTORAGE.CPP
C:\USERS\KARTH\DOCUMENTS\VISUAL STUDIO 2013\PROJECTS\FILESYSTEM\FILESYSTEM\DEBUG\VC120.PDB
C:\USERS\KARTH\DOCUMENTS\VISUAL STUDIO 2013\PROJECTS\FILESYSTEM\FILESYSTEM\DEBUG\VC120.IDB
C:\USERS\KARTH\DOCUMENTS\VISUAL STUDIO 2013\PROJECTS\FILESYSTEM\FILESYSTEM\DEBUG\FILESTORAGE.OBJ
