^C:\USERS\KARTH\DOCUMENTS\VISUAL STUDIO 2013\PROJECTS\COMPLILERS\COMPLILERS\ASSEMBLY.CPP
C:\USERS\KARTH\DOCUMENTS\VISUAL STUDIO 2013\PROJECTS\COMPLILERS\COMPLILERS\DEBUG\VC120.PDB
C:\USERS\KARTH\DOCUMENTS\VISUAL STUDIO 2013\PROJECTS\COMPLILERS\COMPLILERS\DEBUG\VC120.IDB
C:\USERS\KARTH\DOCUMENTS\VISUAL STUDIO 2013\PROJECTS\COMPLILERS\COMPLILERS\DEBUG\ASSEMBLY.OBJ
