^C:\USERS\KARTH\DOCUMENTS\VISUAL STUDIO 2013\PROJECTS\PROJECT1\PROJECT1\DEBUG\ANAGRAM.OBJ|C:\USERS\KARTH\DOCUMENTS\VISUAL STUDIO 2013\PROJECTS\PROJECT1\PROJECT1\DEBUG\EXCEL.OBJ|C:\USERS\KARTH\DOCUMENTS\VISUAL STUDIO 2013\PROJECTS\PROJECT1\PROJECT1\DEBUG\EXCEL_L2.OBJ|C:\USERS\KARTH\DOCUMENTS\VISUAL STUDIO 2013\PROJECTS\PROJECT1\PROJECT1\DEBUG\EXCEL_L5CPP.OBJ|C:\USERS\KARTH\DOCUMENTS\VISUAL STUDIO 2013\PROJECTS\PROJECT1\PROJECT1\DEBUG\FILES.OBJ|C:\USERS\KARTH\DOCUMENTS\VISUAL STUDIO 2013\PROJECTS\PROJECT1\PROJECT1\DEBUG\RATMAZE.OBJ|C:\USERS\KARTH\DOCUMENTS\VISUAL STUDIO 2013\PROJECTS\PROJECT1\PROJECT1\DEBUG\SAMPLE.OBJ|C:\USERS\KARTH\DOCUMENTS\VISUAL STUDIO 2013\PROJECTS\PROJECT1\PROJECT1\DEBUG\SORT_WITH_FILES.OBJ|C:\USERS\KARTH\DOCUMENTS\VISUAL STUDIO 2013\PROJECTS\PROJECT1\PROJECT1\DEBUG\STUDENT.OBJ
C:\USERS\KARTH\DOCUMENTS\VISUAL STUDIO 2013\PROJECTS\PROJECT1\DEBUG\PROJECT1.ILK
C:\USERS\KARTH\DOCUMENTS\VISUAL STUDIO 2013\PROJECTS\PROJECT1\DEBUG\PROJECT1.EXE
C:\USERS\KARTH\DOCUMENTS\VISUAL STUDIO 2013\PROJECTS\PROJECT1\DEBUG\PROJECT1.PDB
